…
trust_df <- trust_df %>%
  limpiar_retweets(text) %>%
  limpiar_duplicates(text) %>%
  limpiar_alphanumeric(text) %>%
  limpiar_spaces(text) %>%
  filter(!is.na(text), text != "")

trust_df <- trust_df %>%
  mutate(word_count = str_count(text, "\\b")) %>%
  filter(word_count > 5)
```

# A tibble: 70 × 3
      id text                                                                word_count
   <int> <chr>                                                                    <int>
 1     1 I think what Lampy123678 and myself are implying is that Hamas and…         46
 2     2 How could they have warned anyone if they said it was a Hamas rock…         56
 3     3 ByronDonalds JimJordan A testament to your lack of morals support …         80
 4     4 Dallas Texas DataMasters a leading data services company based in …       1216
 5     5 b d bop said Ive been on the new G7 system for about a month now I…       1230
 6     6 travelerdoor Its interesting how every computer related one is a c…         48
 7    12 Home Depots Revenue Forecast Dims Amid Slowdown in Home Renovation…        856
 8    13 We could often check for a sound license hunt for safety steps rea…       1360
 9    14 We offer unique and innovative programs that allow Owners and Memb…        902
10    15 This is a Fakespot Reviews Analysis bot Fakespot detects fake revi…        262
# ℹ 60 more rows
…
