LimpiaR X Parts of Speech Workflow • LimpiaR
…
annotations <- limpiar_pos_annotate(data = data, text_var = text, id_var = universal_message_id, pos_model = model,parse_text = TRUE)

Now that we have our texts tokenized, parsed and POS annotations are
complete. Lets take a look at the output in a data table.

annotations %>% 
  dplyr::slice_head(n = 50)

## # A tibble: 50 × 15
##    paragraph_id sentence_id sentence    token_id token lemma pos_tag xpos  feats
##           <int>       <int> <chr>       <chr>    <chr> <chr> <chr>   <chr> <chr>
##  1            1           1 the birch … 1        the   the   DET     DT    Defi…
##  2            1           1 the birch … 2        birch birch NOUN    NN    Numb…
##  3            1           1 the birch … 3        canoe canoe NOUN    NN    Numb…
##  4            1           1 the birch … 4        slid  slid  NOUN    NN    Numb…
##  5            1           1 the birch … 5        on    on    ADP     IN    NA   
##  6            1           1 the birch … 6        the   the   DET     DT    Defi…
##  7            1           1 the birch … 7        smoo… smoo… ADJ     JJ    Degr…
##  8            1           1 the birch … 8        plan… plank NOUN    NNS   Numb…
##  9            1           1 the birch … 9        .     .     PUNCT   .     NA   
## 10            1           1 glue the s… 1        glue  glue  VERB    VB    Mood…
## # ℹ 40 more rows
## # ℹ 6 more variables: head_token_id <chr>, dependency_tag <chr>, id_var <chr>,
## #   text <chr>, document <int>, universal_message_id <chr>
…
