…
#### Trade-off

Setting the parameters results in a trade-off between [precision &
recall](https://jamiehshare.github.io/ds_share_handbook/model_evaluation.html#precision) -
if you set `ngram = 1`, and `min_freq =1`, you will remove every single
document in your dataset that has 1 word in it. This will result in 100%
recall of spam documents - because you remove every document. However,
precision would be low.

``` r
limpiar_examples %>%
  limpiar_spam_grams(mention_content, 1, 1)
#> $spam_grams
#> # A tibble: 56 × 2
#>    ngrams      n
#>    <chr>   <int>
#>  1 es          6
#>  2 mi          4
#>  3 muy         4
#>  4 un          4
#>  5 a           3
#>  6 amigo       3
#>  7 sancho      3
#>  8 de          2
#>  9 dificil     2
#> 10 en          2
#> # ℹ 46 more rows
…
