…
### Example data

Now that we have our model imported into our session, let’s get some
data to tag, tokenise, lemmatise, and extract parts of speech. We need a
data frame with both a text variable and an ID column which uniquely
identifies each text.

``` r
(
data <-tibble(text = tolower(stringr::sentences[1:100]),
                      universal_message_id = paste0("TWITTER", 1:100))
)
```

    ## # A tibble: 100 × 2
    ##    text                                        universal_message_id
    ##    <chr>                                       <chr>               
    ##  1 the birch canoe slid on the smooth planks.  TWITTER1            
    ##  2 glue the sheet to the dark blue background. TWITTER2            
    ##  3 it's easy to tell the depth of a well.      TWITTER3            
    ##  4 these days a chicken leg is a rare dish.    TWITTER4            
    ##  5 rice is often served in round bowls.        TWITTER5            
    ##  6 the juice of lemons makes fine punch.       TWITTER6            
    ##  7 the box was thrown beside the parked truck. TWITTER7            
    ##  8 the hogs were fed chopped corn and garbage. TWITTER8            
    ##  9 four hours of steady work faced us.         TWITTER9            
    ## 10 a large size in stockings is hard to sell.  TWITTER10           
    ## # ℹ 90 more rows
…
Now that we have our texts tokenized, dependencies parsed, and POS
annotations are complete, let’s take a look at the output. After
annotating we have 882 rows, which is an 8.82x increase!

``` r
annotations %>%
  select(-c(sentence, feats, xpos, doc_id)) %>%
  relocate(universal_message_id)
```

    ## # A tibble: 882 × 9
    ##    universal_message_id paragraph_id sentence_id token_id token  lemma  pos_tag
    ##    <chr>                       <int>       <int> <chr>    <chr>  <chr>  <chr>  
    ##  1 TWITTER1                        1           1 1        the    the    DET    
    ##  2 TWITTER1                        1           1 2        birch  birch  NOUN   
    ##  3 TWITTER1                        1           1 3        canoe  canoe  NOUN   
    ##  4 TWITTER1                        1           1 4        slid   slid   NOUN   
    ##  5 TWITTER1                        1           1 5        on     on     ADP    
    ##  6 TWITTER1                        1           1 6        the    the    DET    
    ##  7 TWITTER1                        1           1 7        smooth smooth ADJ    
    ##  8 TWITTER1                        1           1 8        planks plank  NOUN   
    ##  9 TWITTER1                        1           1 9        .      .      PUNCT  
    ## 10 TWITTER2                        1           1 1        glue   glue   VERB   
    ## # ℹ 872 more rows
    ## # ℹ 2 more variables: head_token_id <chr>, dependency_tag <chr>
…
Given the size of our data set there are limited inferences we can make
from the counts, but if we just want to know which adjectives are seen
most frequently:

``` r
# Count adjectives
annotations %>% 
  filter(pos_tag %in% c("ADJ")) %>%
  count(token, pos_tag, sort = TRUE)
```

    ## # A tibble: 65 × 3
    ##    token pos_tag     n
    ##    <chr> <chr>   <int>
    ##  1 blue  ADJ         3
    ##  2 clear ADJ         3
    ##  3 third ADJ         3
    ##  4 large ADJ         2
    ##  5 more  ADJ         2
    ##  6 sharp ADJ         2
    ##  7 small ADJ         2
    ##  8 wide  ADJ         2
    ##  9 young ADJ         2
    ## 10 bent  ADJ         1
    ## # ℹ 55 more rows

Alternatively we could do the same thing for nouns, but this time count
the lemma (in case of plurals).

``` r
#Count the lemma of each noun
annotations %>% 
  filter(pos_tag %in% c("NOUN")) %>% # this time selecting nouns
  count(lemma, sort = TRUE)
```

    ## # A tibble: 214 × 2
    ##    lemma     n
    ##    <chr> <int>
    ##  1 fence     3
    ##  2 week      3
    ##  3 air       2
    ##  4 boy       2
    ##  5 cat       2
    ##  6 coat      2
    ##  7 day       2
    ##  8 fish      2
    ##  9 girl      2
    ## 10 grass     2
    ## # ℹ 204 more rows
…
``` r
adj_to_noun %>%
  mutate(collocation_id = row_number() %% 2, .before = 1) %>% 
  mutate(collocation_id = cumsum(collocation_id == 1)) %>%
  summarise(collocation = paste0(token, collapse = " "), .by = collocation_id) %>%
  count(collocation, sort = TRUE)
```

    ## # A tibble: 56 × 2
    ##    collocation         n
    ##    <chr>           <int>
    ##  1 third week          2
    ##  2 bent hook           1
    ##  3 big task            1
    ##  4 blue air            1
    ##  5 blue background     1
    ##  6 blue fish           1
    ##  7 clear response      1
    ##  8 clear spring        1
    ##  9 clear water         1
    ## 10 cloud hung          1
    ## # ℹ 46 more rows
…
``` r
spanish_model <- limpiar_pos_import_model("spanish") # Load the model 

spanish <- spanish %>%
  limpiar_pos_annotate(text, id, spanish_model, udpate_progress = 0) # Extract Pos Tags  
```

    ## 2025-12-10 12:30:47.955884 Annotating text fragment 1/1

``` r
spanish %>%
  select(token, lemma, pos_tag) # Select relevant columns
```

    ## # A tibble: 49 × 3
    ##    token  lemma  pos_tag
    ##    <chr>  <chr>  <chr>  
    ##  1 Hace   hacer  VERB   
    ##  2 muchos mucho  DET    
    ##  3 años   año    NOUN   
    ##  4 ,      ,      PUNCT  
    ##  5 cuando cuando SCONJ  
    ##  6 llegó  llegar VERB   
    ##  7 a      a      ADP    
    ##  8 La     el     DET    
    ##  9 Habana habana PROPN  
    ## 10 ,      ,      PUNCT  
    ## # ℹ 39 more rows
…
